<?xml version="1.0" standalone="no"?>
<!DOCTYPE svg PUBLIC "-//W3C//DTD SVG 20010904//EN"
 "http://www.w3.org/TR/2001/REC-SVG-20010904/DTD/svg10.dtd">
<svg version="1.0" xmlns="http://www.w3.org/2000/svg"
 width="256.000000pt" height="256.000000pt" viewBox="0 0 256.000000 256.000000"
 preserveAspectRatio="xMidYMid meet">
<metadata>
Created by potrace 1.11, written by Peter Selinger 2001-2013
</metadata>
<g transform="translate(0.000000,256.000000) scale(0.100000,-0.100000)"
fill="#000000" stroke="none">
<path d="M1220 2553 c-26 -10 -65 -24 -70 -25 -21 -3 -134 -94 -225 -182 -218
-212 -265 -259 -265 -265 0 -4 17 -8 38 -9 50 -4 110 -20 139 -39 12 -8 23
-12 23 -8 0 13 97 -75 214 -192 64 -65 116 -118 116 -119 0 0 116 -119 258
-262 141 -144 256 -262 255 -262 -1 0 56 -58 127 -130 72 -71 137 -130 145
-130 8 0 15 -4 15 -8 0 -8 47 -28 92 -39 39 -9 122 -9 153 0 56 17 135 57 135
69 0 6 3 9 6 5 11 -10 80 67 114 126 17 31 28 57 24 57 -4 0 -3 5 4 12 7 7 12
23 12 38 0 18 3 21 9 11 6 -9 9 9 10 48 0 46 -3 60 -12 55 -9 -6 -9 -5 0 7 9
11 8 18 -3 33 -7 10 -11 23 -8 27 3 5 0 9 -7 9 -7 0 -10 3 -6 6 3 4 -10 32
-30 62 -34 53 -49 71 -133 161 -19 21 -60 66 -90 101 -30 35 -69 79 -87 97
-17 18 -30 33 -28 33 2 0 -12 16 -31 35 -19 20 -34 40 -34 45 0 6 -7 10 -15
10 -8 0 -15 4 -15 9 0 4 -15 24 -32 43 -18 19 -58 63 -88 98 -54 62 -75 85
-157 174 -24 26 -43 48 -43 51 0 9 -123 125 -132 125 -5 0 -6 5 -3 10 3 6 0
10 -8 10 -7 0 -23 9 -35 20 -12 11 -26 20 -32 20 -5 0 -10 3 -10 8 0 7 -58 34
-110 50 -26 7 -164 12 -180 5z"/>
<path d="M490 1937 c-24 -12 -100 -83 -180 -167 -184 -193 -206 -217 -237
-270 -14 -25 -31 -48 -37 -52 -6 -4 -8 -8 -4 -8 3 0 -2 -22 -12 -48 -14 -37
-18 -68 -15 -128 4 -94 6 -104 16 -104 5 0 6 -7 3 -15 -4 -8 -1 -15 4 -15 6 0
13 -9 17 -19 6 -19 53 -71 92 -103 76 -60 222 -89 326 -63 79 19 82 20 87 25
3 3 27 18 53 34 27 15 51 34 54 42 3 8 9 11 14 8 5 -3 9 1 9 9 0 7 11 20 25
27 14 7 23 15 21 17 -2 2 90 98 205 214 156 157 207 214 202 226 -4 10 -30 41
-57 70 -28 29 -56 58 -62 65 -13 16 -129 122 -175 162 -35 30 -172 107 -186
105 -4 -1 -10 0 -13 1 -3 1 -28 4 -57 5 -37 2 -64 -4 -93 -18z"/>
<path d="M1153 1275 c-52 -24 -85 -76 -88 -140 -1 -46 2 -60 22 -83 12 -15 23
-30 23 -33 0 -4 19 -16 42 -26 104 -50 224 17 235 130 12 114 -123 201 -234
152z"/>
<path d="M773 866 c-49 -17 -75 -48 -80 -98 -9 -75 29 -116 114 -124 41 -3 48
0 82 35 37 37 40 50 32 118 -2 18 -62 74 -75 70 -6 -2 -18 -1 -26 3 -8 4 -30
2 -47 -4z"/>
<path d="M1205 870 c-68 -20 -99 -59 -97 -120 1 -34 26 -76 56 -92 28 -16 106
-19 106 -6 0 6 3 8 7 5 9 -9 63 49 64 70 4 42 -2 78 -14 85 -6 4 -8 8 -3 8 16
0 -44 41 -71 49 -16 4 -37 5 -48 1z"/>
<path d="M1631 867 c-6 -6 -11 -7 -11 -2 0 5 -16 -6 -35 -25 -30 -29 -35 -40
-35 -82 0 -39 5 -53 30 -78 16 -16 35 -30 42 -31 7 0 23 -2 36 -5 35 -6 89 21
111 57 21 34 20 97 -2 111 -7 4 -8 8 -3 8 5 0 -1 9 -14 20 -21 19 -34 23 -92
34 -9 2 -21 -1 -27 -7z"/>
<path d="M779 512 c-29 -15 -34 -23 -37 -57 -3 -35 1 -42 27 -58 27 -16 33
-16 66 -3 19 8 36 21 36 28 1 7 3 22 4 34 2 24 -11 44 -41 61 -17 9 -28 8 -55
-5z"/>
<path d="M1186 508 c-40 -35 -43 -71 -6 -101 25 -22 35 -24 62 -16 39 11 46
17 52 52 4 22 -2 35 -24 58 -19 20 -31 26 -35 18 -6 -8 -9 -8 -15 1 -5 8 -15
5 -34 -12z"/>
<path d="M1625 508 c-26 -23 -42 -68 -24 -68 5 0 8 -3 8 -7 -6 -35 31 -54 78
-41 37 10 42 16 47 56 4 34 -13 60 -40 65 -10 1 -24 6 -31 10 -6 4 -23 -3 -38
-15z"/>
<path d="M1220 280 c0 -6 -4 -9 -9 -6 -11 7 -32 -17 -35 -41 -2 -9 7 -27 18
-38 39 -41 103 5 76 54 -13 25 -50 47 -50 31z"/>
<path d="M1196 36 c-7 -26 1 -36 29 -36 29 0 36 10 28 38 -7 28 -50 26 -57 -2z"/>
</g>
</svg>
