{
	"name": "LODR",
	"icons": [
		{
			"src": "/assets/favicon/android-chrome-192x192-fd6c2ac9e338531a668de0c28feb1b13299f71f0adf7ceffd700c35179360bca.png",
			"sizes": "192x192",
			"type": "image\/png"
		},
		{
			"src": "/assets/favicon/android-chrome-256x256-c277077aa45777172575d047ba493c349e28d3f00f22500bac499a6a8d62cdde.png",
			"sizes": "256x256",
			"type": "image\/png"
		}
	],
	"theme_color": "#ffffff",
	"display": "standalone"
}
